<?xml version="1.0" encoding="UTF-8"?>
<CustomTab xmlns="http://soap.sforce.com/2006/04/metadata">
    <customObject>true</customObject>
    <description>Tab to list Business Process Items - actual steps required to be completed.</description>
    <mobileReady>false</mobileReady>
    <motif>Custom83: Pencil</motif>
</CustomTab>
