<?xml version="1.0" encoding="UTF-8"?>
<CustomTab xmlns="http://soap.sforce.com/2006/04/metadata">
    <label>ChatOOO</label>
    <mobileReady>false</mobileReady>
    <motif>Custom54: Boat</motif>
    <page>ChatOOO__ChatOOO_Management</page>
</CustomTab>
