<?xml version="1.0" encoding="UTF-8"?>
<CustomTab xmlns="http://soap.sforce.com/2006/04/metadata">
    <description>This tab is Used to display the EDQ Forecast report</description>
    <label>EDQ Forecast</label>
    <mobileReady>false</mobileReady>
    <motif>Custom58: Caduceus</motif>
    <page>Forecastreport</page>
</CustomTab>
