<?xml version="1.0" encoding="UTF-8"?>
<CustomTab xmlns="http://soap.sforce.com/2006/04/metadata">
    <frameHeight>600</frameHeight>
    <hasSidebar>true</hasSidebar>
    <label>Oracle</label>
    <mobileReady>false</mobileReady>
    <motif>Custom49: CD/DVD</motif>
    <url>https://apps.unify.uk.experian.com:8013/oracleUNIFYlogin.html</url>
    <urlEncodingKey>UTF-8</urlEncodingKey>
</CustomTab>
